kind: bootstrap_import

sources:
- kind: cas
  # casupload --cas-server=http://localhost:50040 components/python3-pyyaml/
  digest: 7d030903e79f1da770c2c536c9b5f3ef239b3f43bdee2e91ad55b5e5be5b4898/77
