kind: bootstrap_import

sources:
- kind: cas
  # casupload --cas-server=http://localhost:50040 components/rust-arm
  # digest: 99d3b853ff83151df344ff6311b8cdc18ffc1d0fb3bc4ae5af0b67651f30d7d8/155
  digest: c0a746c13bdac37eed1b127999f1224279760c182e739f880fb69790167c527d/155